0 2
1 2
2 2
3 2
4 2
5 2
6 2
7 2
8 2
9 2
10 2
11 2
2 5
3 5
4 5
7 5
8 5
9 5
10 5
11 5
12 5
13 5
0 8
1 8
2 8
3 8
4 8
5 8
6 8
7 8
8 8
9 8
10 8
11 8
2 11
3 11
4 11
7 11
8 11
9 11
10 11
11 11
12 11
13 11
0 14
1 14
2 14
3 14
4 14
5 14
6 14
7 14
8 14
9 14
10 14
11 14 
14 0
14 1
14 2
14 3
14 5
14 6
14 7
14 8
14 9
14 10
14 11